{
  "Profiles": [
  {
    "Badge Text" : "",
    "Thin Strokes" : 4,
    "Working Directory" : "$HOME",
    "Prompt Before Closing 2" : 0,
    "Selected Text Color" : {
      "Red Component" : 0.92156869173049927,
      "Color Space" : "sRGB",
      "Blue Component" : 0.71764713525772095,
      "Alpha Component" : 1,
      "Green Component" : 0.81960791349411011
    },
    "Dynamic Profile Filename" : "\/Users\/miwanicki1\/Library\/Application Support\/iTerm2\/DynamicProfiles\/iterm2-shared.json",
    "Rows" : 25,
    "Ansi 11 Color" : {
      "Red Component" : 0.90196084976196289,
      "Color Space" : "sRGB",
      "Blue Component" : 0.45490187406539917,
      "Alpha Component" : 1,
      "Green Component" : 0.85882359743118286
    },
    "Use Italic Font" : true,
    "Custom Directory" : "Recycle",
    "Foreground Color" : {
      "Red Component" : 0.92156869173049927,
      "Color Space" : "sRGB",
      "Blue Component" : 0.71764713525772095,
      "Alpha Component" : 1,
      "Green Component" : 0.81960791349411011
    },
    "Right Option Key Sends" : 0,
    "Character Encoding" : 4,
    "Selection Color" : {
      "Red Component" : 0.40000000596046448,
      "Color Space" : "sRGB",
      "Blue Component" : 0.40000000596046448,
      "Alpha Component" : 1,
      "Green Component" : 0.40000000596046448
    },
    "Triggers" : [
  
    ],
    "Blend" : 0.14378381600746748,
    "Mouse Reporting" : true,
    "Cursor Boost" : 0,
    "Ansi 4 Color" : {
      "Red Component" : 0.0039217900484800339,
      "Color Space" : "sRGB",
      "Blue Component" : 0.7764706015586853,
      "Alpha Component" : 1,
      "Green Component" : 0.65882354974746704
    },
    "Non-ASCII Anti Aliased" : true,
    "Sync Title" : false,
    "Disable Window Resizing" : true,
    "Description" : "Default",
    "Close Sessions On End" : true,
    "Jobs to Ignore" : [
      "rlogin",
      "ssh",
      "slogin",
      "telnet"
    ],
    "Scrollback With Status Bar" : false,
    "Scrollback Lines" : 100000,
    "Scrollback in Alternate Screen" : true,
    "Hide After Opening" : false,
    "Flashing Bell" : false,
    "Cursor Guide Color" : {
      "Red Component" : 0.70213186740875244,
      "Color Space" : "sRGB",
      "Blue Component" : 1,
      "Alpha Component" : 0.25,
      "Green Component" : 0.9268307089805603
    },
    "BM Growl" : true,
    "Ansi 3 Color" : {
      "Red Component" : 0.97254914045333862,
      "Color Space" : "sRGB",
      "Blue Component" : 0.23137250542640686,
      "Alpha Component" : 1,
      "Green Component" : 0.73333340883255005
    },
    "AWDS Window Directory" : "",
    "Link Color" : {
      "Red Component" : 0,
      "Color Space" : "sRGB",
      "Blue Component" : 0.73423302173614502,
      "Alpha Component" : 1,
      "Green Component" : 0.35916060209274292
    },
    "Use Non-ASCII Font" : false,
    "Shortcut" : "",
    "Background Image Location" : "",
    "Bold Color" : {
      "Red Component" : 0.97254914045333862,
      "Color Space" : "sRGB",
      "Blue Component" : 0.94117647409439087,
      "Alpha Component" : 1,
      "Green Component" : 0.97254914045333862
    },
    "Unlimited Scrollback" : false,
    "Custom Command" : "No",
    "AWDS Tab Option" : "No",
    "Smart Selection Rules" : [
      {
        "notes" : "Word bounded by whitespace",
        "regex" : "\\S+",
        "precision" : "low"
      },
      {
        "notes" : "C++ namespace::identifier",
        "regex" : "([a-zA-Z0-9_]+::)+[a-zA-Z0-9_]+",
        "precision" : "normal"
      },
      {
        "notes" : "Paths",
        "regex" : "\\~?\/?([[:letter:][:number:]._-]+\/+)+[[:letter:][:number:]._-]+\/?",
        "precision" : "normal"
      },
      {
        "notes" : "Quoted string",
        "regex" : "@?\"(?:[^\"\\\\]|\\\\.)*\"",
        "precision" : "normal"
      },
      {
        "notes" : "Java\/Python include paths",
        "regex" : "([[:letter:][:number:]._]+\\.)+[[:letter:][:number:]._]+",
        "precision" : "normal"
      },
      {
        "notes" : "mailto URL",
        "regex" : "\\bmailto:([a-z0-9A-Z_]+@)?([a-zA-Z0-9\\-]+\\.)*[a-zA-Z0-9\\-]+\\b",
        "precision" : "normal"
      },
      {
        "notes" : "Obj-C selector",
        "regex" : "@selector\\([^)]+\\)",
        "precision" : "high"
      },
      {
        "notes" : "email address",
        "regex" : "\\b[A-Za-z0-9._%+-]+@[A-Za-z0-9.-]+\\.[A-Za-z]{2,4}\\b",
        "precision" : "high"
      },
      {
        "notes" : "HTTP URL",
        "regex" : "https?:\/\/([a-z0-9A-Z]+(:[a-zA-Z0-9]+)?@)?[a-z0-9A-Z]+(\\.[a-z0-9A-Z]+)*((:[0-9]+)?)(\/[a-zA-Z0-9;\/\\.\\-_+%~?&@=#\\(\\)]*)?",
        "precision" : "very_high"
      },
      {
        "notes" : "SSH URL",
        "regex" : "\\bssh:([a-z0-9A-Z_]+@)?([a-zA-Z0-9\\-]+\\.)*[a-zA-Z0-9\\-]+\\b",
        "precision" : "very_high"
      },
      {
        "notes" : "Telnet URL",
        "regex" : "\\btelnet:([a-z0-9A-Z_]+@)?([a-zA-Z0-9\\-]+\\.)*[a-zA-Z0-9\\-]+\\b",
        "precision" : "very_high"
      }
    ],
    "Keyboard Map" : {
      "0xf701-0x280000" : {
        "Text" : "0x01",
        "Action" : 11
      },
      "0xf702-0x280000" : {
        "Action" : 10,
        "Text" : "b"
      },
      "0xf700-0x280000" : {
        "Text" : "0x05",
        "Action" : 11
      },
      "0xf703-0x280000" : {
        "Action" : 10,
        "Text" : "f"
      }
    },
    "Log Directory" : "",
    "Use Canonical Parser" : false,
    "Ansi 14 Color" : {
      "Red Component" : 0.48182648420333862,
      "Color Space" : "sRGB",
      "Blue Component" : 0.904266357421875,
      "Alpha Component" : 1,
      "Green Component" : 0.80487024784088135
    },
    "Ansi 2 Color" : {
      "Red Component" : 0.58431380987167358,
      "Color Space" : "sRGB",
      "Blue Component" : 0.36862742900848389,
      "Alpha Component" : 1,
      "Green Component" : 0.80000001192092896
    },
    "Background Image Is Tiled" : false,
    "Send Code When Idle" : false,
    "ASCII Anti Aliased" : true,
    "Tags" : [
      "mbp",
      "dark",
      "Dynamic"
    ],
    "Ansi 9 Color" : {
      "Red Component" : 1,
      "Color Space" : "sRGB",
      "Blue Component" : 0.42523977160453796,
      "Alpha Component" : 1,
      "Green Component" : 0.48595738410949707
    },
    "Use Bold Font" : false,
    "Silence Bell" : true,
    "Ansi 12 Color" : {
      "Red Component" : 0.42861020565032959,
      "Color Space" : "sRGB",
      "Blue Component" : 1,
      "Alpha Component" : 1,
      "Green Component" : 0.87988829612731934
    },
    "Window Type" : 0,
    "Allow Title Reporting" : false,
    "Use Bright Bold" : true,
    "Send Bell Alert" : false,
    "Cursor Text Color" : {
      "Red Component" : 0.21176472306251526,
      "Color Space" : "sRGB",
      "Blue Component" : 0.16862741112709045,
      "Alpha Component" : 1,
      "Green Component" : 0.19215682148933411
    },
    "Default Bookmark" : "No",
    "Cursor Color" : {
      "Red Component" : 0.97254914045333862,
      "Color Space" : "sRGB",
      "Blue Component" : 0.94117647409439087,
      "Alpha Component" : 1,
      "Green Component" : 0.97254914045333862
    },
    "Disable Smcup Rmcup" : false,
    "Name" : "iterm2-shared",
    "Blinking Cursor" : true,
    "Guid" : "0B34DBC7-6CEA-4DCE-886A-2B3EE5A2A9CE",
    "Ansi 1 Color" : {
      "Red Component" : 0.83529424667358398,
      "Color Space" : "sRGB",
      "Blue Component" : 0.26274508237838745,
      "Alpha Component" : 1,
      "Green Component" : 0.34509798884391785
    },
    "Send Terminal Generated Alerts" : false,
    "Idle Code" : 0,
    "Ansi 10 Color" : {
      "Red Component" : 0.65098041296005249,
      "Color Space" : "sRGB",
      "Blue Component" : 0.27058818936347961,
      "Alpha Component" : 1,
      "Green Component" : 0.88627457618713379
    },
    "Ansi 8 Color" : {
      "Red Component" : 0.47843140363693237,
      "Color Space" : "sRGB",
      "Blue Component" : 0.40392154455184937,
      "Alpha Component" : 1,
      "Green Component" : 0.44705879688262939
    },
    "Badge Color" : {
      "Red Component" : 1,
      "Color Space" : "sRGB",
      "Blue Component" : 0,
      "Alpha Component" : 0.5,
      "Green Component" : 0.1491314172744751
    },
    "Automatically Log" : false,
    "Smart Cursor Color" : true,
    "Semantic History" : {
      "editor" : "com.sublimetext.3",
      "text" : "",
      "action" : "best editor"
    },
    "Ambiguous Double Width" : false,
    "Blur Radius" : 9.1151233343908622,
    "Ansi 0 Color" : {
      "Red Component" : 0.086274512112140656,
      "Color Space" : "sRGB",
      "Blue Component" : 0.12156861275434494,
      "Alpha Component" : 1,
      "Green Component" : 0.10196074098348618
    },
    "Cursor Type" : 0,
    "AWDS Pane Directory" : "",
    "Blur" : true,
    "Normal Font" : "SourceCodePro+Powerline+AwesomeRegular 13",
    "Vertical Spacing" : 1,
    "Use Underline Color" : false,
    "Disable Printing" : false,
    "Ansi 7 Color" : {
      "Red Component" : 0.92156869173049927,
      "Color Space" : "sRGB",
      "Blue Component" : 0.72156864404678345,
      "Alpha Component" : 1,
      "Green Component" : 0.81568628549575806
    },
    "AWDS Tab Directory" : "",
    "AWDS Pane Option" : "No",
    "Command" : "",
    "Terminal Type" : "xterm-256color",
    "Horizontal Spacing" : 0.90000000000000002,
    "Option Key Sends" : 0,
    "Only The Default BG Color Uses Transparency" : true,
    "Blink Allowed" : true,
    "Minimum Contrast" : 0,
    "Ansi 15 Color" : {
      "Red Component" : 0.97254914045333862,
      "Color Space" : "sRGB",
      "Blue Component" : 0.94117647409439087,
      "Alpha Component" : 1,
      "Green Component" : 0.97254914045333862
    },
    "Open Toolbelt" : false,
    "Tab Color" : {
      "Red Component" : 0,
      "Color Space" : "sRGB",
      "Blue Component" : 0,
      "Alpha Component" : 1,
      "Green Component" : 0
    },
    "Ansi 6 Color" : {
      "Red Component" : 0.37647062540054321,
      "Color Space" : "sRGB",
      "Blue Component" : 0.3960784375667572,
      "Alpha Component" : 1,
      "Green Component" : 0.63921564817428589
    },
    "Transparency" : 0.098901491116751394,
    "Initial Text" : "",
    "Background Color" : {
      "Red Component" : 0.11138916015625,
      "Color Space" : "sRGB",
      "Blue Component" : 0.10256790369749069,
      "Alpha Component" : 1,
      "Green Component" : 0.10256790369749069
    },
    "Unicode Version" : 9,
    "Screen" : 0,
    "AWDS Window Option" : "No",
    "Bound Hosts" : [
  
    ],
    "Non Ascii Font" : "MesloLGMDZ-RegularForPowerline 12",
    "Ansi 13 Color" : {
      "Red Component" : 1,
      "Color Space" : "sRGB",
      "Blue Component" : 0.48513132333755493,
      "Alpha Component" : 1,
      "Green Component" : 0.64442485570907593
    },
    "Columns" : 80,
    "Visual Bell" : true,
    "ASCII Ligatures" : false,
    "Ansi 5 Color" : {
      "Red Component" : 0.85882371664047241,
      "Color Space" : "sRGB",
      "Blue Component" : 0.30196073651313782,
      "Alpha Component" : 1,
      "Green Component" : 0.47058820724487305
    },
    "Set Local Environment Vars" : true
  }
  ]
  }
  